Pe server in c:\xampp\mysql\bin

mysql -u root -p
pass: 

------------

show databases;

create database Viensisi;

use Viensisi;

show tables;

-------------

Apoi executa fisierele .sql
	
	\. c:/<cale>/1-table-<table_name>.sql

in ordine, de la 1 la 5

---------

to login as admin use credentials
	user:	admin
	pass:	admin